研究室と講義の R コード - 線形モデル
…
この現象は多重共線性 (multicollinearity) とよびます。

説明変数はお互いに関係がなければ，直交性 (orthogonal) のあるモデルとなり，変数の推定量はお互いとの相関性がないです。

野外データは上の条件を満たすことは珍しいが、すべての条件を満たさなくても解析はできます。 ただし、結果の解釈と考察には気をつけましょう。

一般線形モデルの例 (General Linear Model)

解析例にはアヤメのデータをつかっています。 ちなみに、一般線形モデルは一般化線形モデル (Generalized Linear Model, GLM) の特例です。

iris = iris |> as_tibble()
iris |> print(n = 3)

# A tibble: 150 × 5
  Sepal.Length Sepal.Width Petal.Length Petal.Width Species
         <dbl>       <dbl>        <dbl>       <dbl> <fct>  
1          5.1         3.5          1.4         0.2 setosa 
2          4.9         3            1.4         0.2 setosa 
3          4.7         3.2          1.3         0.2 setosa 
# … with 147 more rows
…
Wald’s test と F-test のこちらもモデルの解析に使えます。 ところが、一般的には、モデル選択に F-test を使いますが、 係数が 0 か 0 じゃないかの検証には Wald’s test を使います。 ちなみに、このモデルの場合、(t_\nu)^2 = F_{(1,\nu)} なので、 係数表のt値の2乗は Type-II 分散分析のF値と同じです。

モデル診断

モデルを当てはめたあと、最も重要な解析はモデル残渣の確認です。 モデル残渣に異常があると、モデルとデータの相性が悪いです。 モデルとデータが合わない場合、求めた係数を信用できません。

一般線形モデルのとき、標準化残渣 (standardized residuals) をもとめて、モデルの良さを目で確認します。 つまり、標準化残渣を様々形の図を作ります。

まず、残渣を持てめて、図に使うデータを準備します。

firis = fortify(m1) |> as_tibble()
firis

# A tibble: 150 × 10
   Petal…¹ Petal…² Sepal…³ Sepal…⁴   .hat .sigma .cooksd .fitted  .resid .stdr…⁵
     <dbl>   <dbl>   <dbl>   <dbl>  <dbl>  <dbl>   <dbl>   <dbl>   <dbl>   <dbl>
 1     1.4     0.2     5.1     3.5 0.0205  0.320 3.73e-4    1.48 -0.0842 -0.267 
 2     1.4     0.2     4.9     3   0.0212  0.319 3.71e-3    1.66 -0.261  -0.828 
 3     1.3     0.2     4.7     3.2 0.0201  0.320 3.84e-4    1.39 -0.0864 -0.274 
 4     1.5     0.2     4.6     3.1 0.0221  0.320 8.46e-4    1.38  0.122   0.387 
 5     1.4     0.2     5       3.6 0.0230  0.320 1.68e-4    1.35  0.0533  0.169 
 6     1.7     0.4     5.4     3.9 0.0327  0.320 9.86e-5    1.73 -0.0339 -0.108 
 7     1.4     0.3     4.6     3.4 0.0255  0.320 3.34e-4    1.33  0.0711  0.226 
 8     1.5     0.2     5       3.4 0.0189  0.320 2.81e-5    1.48  0.0241  0.0763
 9     1.4     0.2     4.4     2.9 0.0293  0.320 1.14e-4    1.36  0.0386  0.123 
10     1.5     0.1     4.9     3.1 0.0225  0.320 1.32e-4    1.45  0.0479  0.152 
# … with 140 more rows, and abbreviated variable names ¹​Petal.Length,
#   ²​Petal.Width, ³​Sepal.Length, ⁴​Sepal.Width, ⁵​.stdresid
…
VIF(\beta_i) > 10 であれば，多重共線性の問題は大きいと考えられます。 このときの決定係数は 1-1/10 = 0.90 です。

ガラパゴス諸島における種数の解析

iris データの解析に大きな問題がなかったので、あまり参考にならなかったので、 ガラパゴス諸島のデータを解析してみましょう。

faraway パッケージの gala を解析します。 gala にはガラパゴス諸島の生態系に対しての 7 つの変数があります。Species は植物の種数，Endemics は植物の固有種， Area は島の平面積 (m2)，Elevation は島の最も高い場所 (m)，Nearest は最も近い島からの距離 (km)，Scruz はサンタクルス島からの距離 (km)，Adjacent は最も近い島の面積 (m2)です。

data(gala, package = "faraway")
gala = gala |> as_tibble() # tibble に変換
gala |> print(n = 3) # 最初の 3 行を表示

# A tibble: 30 × 7
  Species Endemics  Area Elevation Nearest Scruz Adjacent
    <dbl>    <dbl> <dbl>     <dbl>   <dbl> <dbl>    <dbl>
1      58       23 25.1        346     0.6   0.6     1.84
2      31       21  1.24       109     0.6  26.3   572.  
3       3        3  0.21       114     2.8  58.7     0.78
# … with 27 more rows
…
