研究室と講義の R コード - 地図の作り方
…
zostera = read_csv("~/Lab_Data/matsumuro/Katagami_Bay/longlat_info.csv")

Rows: 105 Columns: 6
── Column specification ────────────────────────────────────────────────────────
Delimiter: ","
chr  (1): eelgrass
dbl  (4): Name, lat, long, coverage(%)
dttm (1): datetime

ℹ Use `spec()` to retrieve the full column specification for this data.
ℹ Specify the column types or set `show_col_types = FALSE` to quiet this message.

zostera |> print(n = 3)

# A tibble: 105 × 6
   Name   lat  long datetime            eelgrass `coverage(%)`
  <dbl> <dbl> <dbl> <dttm>              <chr>            <dbl>
1     1  33.0  130. 2021-05-25 09:14:48 absent               0
2     2  33.0  130. 2021-05-25 09:30:32 absent               0
3     3  33.0  130. 2021-05-25 09:37:16 present              5
# … with 102 more rows

zostera に緯度経度を設定する。 CRS は mlit と同じにします。

zostera = zostera |> st_as_sf(coords = c("long", "lat"), crs = st_crs(mlit))
zostera |> print(n = 3)

Simple feature collection with 105 features and 4 fields
Geometry type: POINT
Dimension:     XY
Bounding box:  xmin: 129.7845 ymin: 32.90032 xmax: 129.806 ymax: 32.95375
Geodetic CRS:  JGD2011
# A tibble: 105 × 5
   Name datetime            eelgrass `coverage(%)`            geometry
* <dbl> <dttm>              <chr>            <dbl>         <POINT [°]>
1     1 2021-05-25 09:14:48 absent               0 (129.7985 32.95375)
2     2 2021-05-25 09:30:32 absent               0 (129.7987 32.95258)
3     3 2021-05-25 09:37:16 present              5  (129.7963 32.9519)
# … with 102 more rows
…
