研究室と講義の R コード - データの操作
…
行における操作

filter()：条件を満たした行を返す

distinct()：指定した変数から重複している行を外す

slice()：指定した行インデックスを返す

arrange()：指定した列の昇順で行を並べ替える

列の加工

iris |> as_tibble() |> mutate(P2 = Petal.Length^2)

# A tibble: 150 × 6
   Sepal.Length Sepal.Width Petal.Length Petal.Width Species    P2
          <dbl>       <dbl>        <dbl>       <dbl> <fct>   <dbl>
 1          5.1         3.5          1.4         0.2 setosa   1.96
 2          4.9         3            1.4         0.2 setosa   1.96
 3          4.7         3.2          1.3         0.2 setosa   1.69
 4          4.6         3.1          1.5         0.2 setosa   2.25
 5          5           3.6          1.4         0.2 setosa   1.96
 6          5.4         3.9          1.7         0.4 setosa   2.89
 7          4.6         3.4          1.4         0.3 setosa   1.96
 8          5           3.4          1.5         0.2 setosa   2.25
 9          4.4         2.9          1.4         0.2 setosa   1.96
10          4.9         3.1          1.5         0.1 setosa   2.25
# … with 140 more rows

iris |> as_tibble() |> select(Species, Petal.Length)

# A tibble: 150 × 2
   Species Petal.Length
   <fct>          <dbl>
 1 setosa           1.4
 2 setosa           1.4
 3 setosa           1.3
 4 setosa           1.5
 5 setosa           1.4
 6 setosa           1.7
 7 setosa           1.4
 8 setosa           1.5
 9 setosa           1.4
10 setosa           1.5
# … with 140 more rows

iris |> as_tibble() |> select(matches("Length"))

# A tibble: 150 × 2
   Sepal.Length Petal.Length
          <dbl>        <dbl>
 1          5.1          1.4
 2          4.9          1.4
 3          4.7          1.3
 4          4.6          1.5
 5          5            1.4
 6          5.4          1.7
 7          4.6          1.4
 8          5            1.5
 9          4.4          1.4
10          4.9          1.5
# … with 140 more rows

iris |> as_tibble() |> rename(PL = Petal.Length)

# A tibble: 150 × 5
   Sepal.Length Sepal.Width    PL Petal.Width Species
          <dbl>       <dbl> <dbl>       <dbl> <fct>  
 1          5.1         3.5   1.4         0.2 setosa 
 2          4.9         3     1.4         0.2 setosa 
 3          4.7         3.2   1.3         0.2 setosa 
 4          4.6         3.1   1.5         0.2 setosa 
 5          5           3.6   1.4         0.2 setosa 
 6          5.4         3.9   1.7         0.4 setosa 
 7          4.6         3.4   1.4         0.3 setosa 
 8          5           3.4   1.5         0.2 setosa 
 9          4.4         2.9   1.4         0.2 setosa 
10          4.9         3.1   1.5         0.1 setosa 
# … with 140 more rows

iris |> as_tibble() |> 
  rename_with(~str_replace_all(.x, "[(a-z.)]", ""), .cols = matches("(Pet)|(Sep)"))

# A tibble: 150 × 5
      SL    SW    PL    PW Species
   <dbl> <dbl> <dbl> <dbl> <fct>  
 1   5.1   3.5   1.4   0.2 setosa 
 2   4.9   3     1.4   0.2 setosa 
 3   4.7   3.2   1.3   0.2 setosa 
 4   4.6   3.1   1.5   0.2 setosa 
 5   5     3.6   1.4   0.2 setosa 
 6   5.4   3.9   1.7   0.4 setosa 
 7   4.6   3.4   1.4   0.3 setosa 
 8   5     3.4   1.5   0.2 setosa 
 9   4.4   2.9   1.4   0.2 setosa 
10   4.9   3.1   1.5   0.1 setosa 
# … with 140 more rows
…
iris |> as_tibble() |> relocate(Species, .before = "Sepal.Length")

# A tibble: 150 × 5
   Species Sepal.Length Sepal.Width Petal.Length Petal.Width
   <fct>          <dbl>       <dbl>        <dbl>       <dbl>
 1 setosa           5.1         3.5          1.4         0.2
 2 setosa           4.9         3            1.4         0.2
 3 setosa           4.7         3.2          1.3         0.2
 4 setosa           4.6         3.1          1.5         0.2
 5 setosa           5           3.6          1.4         0.2
 6 setosa           5.4         3.9          1.7         0.4
 7 setosa           4.6         3.4          1.4         0.3
 8 setosa           5           3.4          1.5         0.2
 9 setosa           4.4         2.9          1.4         0.2
10 setosa           4.9         3.1          1.5         0.1
# … with 140 more rows

iris |> as_tibble() |> relocate(Species, matches("Length"), .before = "Sepal.Length")

# A tibble: 150 × 5
   Species Sepal.Length Petal.Length Sepal.Width Petal.Width
   <fct>          <dbl>        <dbl>       <dbl>       <dbl>
 1 setosa           5.1          1.4         3.5         0.2
 2 setosa           4.9          1.4         3           0.2
 3 setosa           4.7          1.3         3.2         0.2
 4 setosa           4.6          1.5         3.1         0.2
 5 setosa           5            1.4         3.6         0.2
 6 setosa           5.4          1.7         3.9         0.4
 7 setosa           4.6          1.4         3.4         0.3
 8 setosa           5            1.5         3.4         0.2
 9 setosa           4.4          1.4         2.9         0.2
10 setosa           4.9          1.5         3.1         0.1
# … with 140 more rows

行の加工

iris |> as_tibble() |> filter(str_detect(Species, "versicolor"))

# A tibble: 50 × 5
   Sepal.Length Sepal.Width Petal.Length Petal.Width Species   
          <dbl>       <dbl>        <dbl>       <dbl> <fct>     
 1          7           3.2          4.7         1.4 versicolor
 2          6.4         3.2          4.5         1.5 versicolor
 3          6.9         3.1          4.9         1.5 versicolor
 4          5.5         2.3          4           1.3 versicolor
 5          6.5         2.8          4.6         1.5 versicolor
 6          5.7         2.8          4.5         1.3 versicolor
 7          6.3         3.3          4.7         1.6 versicolor
 8          4.9         2.4          3.3         1   versicolor
 9          6.6         2.9          4.6         1.3 versicolor
10          5.2         2.7          3.9         1.4 versicolor
# … with 40 more rows
…
iris |> as_tibble() |> distinct(Species)

# A tibble: 3 × 1
  Species   
  <fct>     
1 setosa    
2 versicolor
3 virginica 

iris |> as_tibble() |> distinct(Petal.Length, .keep_all = T)

# A tibble: 43 × 5
   Sepal.Length Sepal.Width Petal.Length Petal.Width Species   
          <dbl>       <dbl>        <dbl>       <dbl> <fct>     
 1          5.1         3.5          1.4         0.2 setosa    
 2          4.7         3.2          1.3         0.2 setosa    
 3          4.6         3.1          1.5         0.2 setosa    
 4          5.4         3.9          1.7         0.4 setosa    
 5          4.8         3.4          1.6         0.2 setosa    
 6          4.3         3            1.1         0.1 setosa    
 7          5.8         4            1.2         0.2 setosa    
 8          4.6         3.6          1           0.2 setosa    
 9          4.8         3.4          1.9         0.2 setosa    
10          7           3.2          4.7         1.4 versicolor
# … with 33 more rows
…
iris |> as_tibble() |> slice_sample(n = 3)

# A tibble: 3 × 5
  Sepal.Length Sepal.Width Petal.Length Petal.Width Species   
         <dbl>       <dbl>        <dbl>       <dbl> <fct>     
1          7.7         2.8          6.7         2   virginica 
2          7.2         3            5.8         1.6 virginica 
3          5.7         2.6          3.5         1   versicolor

iris |> as_tibble() |> arrange(Sepal.Length)

# A tibble: 150 × 5
   Sepal.Length Sepal.Width Petal.Length Petal.Width Species
          <dbl>       <dbl>        <dbl>       <dbl> <fct>  
 1          4.3         3            1.1         0.1 setosa 
 2          4.4         2.9          1.4         0.2 setosa 
 3          4.4         3            1.3         0.2 setosa 
 4          4.4         3.2          1.3         0.2 setosa 
 5          4.5         2.3          1.3         0.3 setosa 
 6          4.6         3.1          1.5         0.2 setosa 
 7          4.6         3.4          1.4         0.3 setosa 
 8          4.6         3.6          1           0.2 setosa 
 9          4.6         3.2          1.4         0.2 setosa 
10          4.7         3.2          1.3         0.2 setosa 
# … with 140 more rows

iris |> as_tibble() |> 
  arrange(desc(Sepal.Length), desc(Sepal.Width))

# A tibble: 150 × 5
   Sepal.Length Sepal.Width Petal.Length Petal.Width Species  
          <dbl>       <dbl>        <dbl>       <dbl> <fct>    
 1          7.9         3.8          6.4         2   virginica
 2          7.7         3.8          6.7         2.2 virginica
 3          7.7         3            6.1         2.3 virginica
 4          7.7         2.8          6.7         2   virginica
 5          7.7         2.6          6.9         2.3 virginica
 6          7.6         3            6.6         2.1 virginica
 7          7.4         2.8          6.1         1.9 virginica
 8          7.3         2.9          6.3         1.8 virginica
 9          7.2         3.6          6.1         2.5 virginica
10          7.2         3.2          6           1.8 virginica
# … with 140 more rows
…
group_nest()：グループ化した tibble をネスト（入れ子）する

nest()：渡した列をネストする

unnest()：ネストされている列を展開（アンネスト）する

group_map()：グループ化した tibble に関数を適応して、リストを返す

group_modify()：グループ化した tibble に関数を適応して、tibble を返す

tibble のグループ化

iris |> as_tibble() |> select(1:3)

# A tibble: 150 × 3
   Sepal.Length Sepal.Width Petal.Length
          <dbl>       <dbl>        <dbl>
 1          5.1         3.5          1.4
 2          4.9         3            1.4
 3          4.7         3.2          1.3
 4          4.6         3.1          1.5
 5          5           3.6          1.4
 6          5.4         3.9          1.7
 7          4.6         3.4          1.4
 8          5           3.4          1.5
 9          4.4         2.9          1.4
10          4.9         3.1          1.5
# … with 140 more rows

iris |> as_tibble() |> group_by(Species) |> select(1:3)

Adding missing grouping variables: `Species`

# A tibble: 150 × 4
# Groups:   Species [3]
   Species Sepal.Length Sepal.Width Petal.Length
   <fct>          <dbl>       <dbl>        <dbl>
 1 setosa           5.1         3.5          1.4
 2 setosa           4.9         3            1.4
 3 setosa           4.7         3.2          1.3
 4 setosa           4.6         3.1          1.5
 5 setosa           5           3.6          1.4
 6 setosa           5.4         3.9          1.7
 7 setosa           4.6         3.4          1.4
 8 setosa           5           3.4          1.5
 9 setosa           4.4         2.9          1.4
10 setosa           4.9         3.1          1.5
# … with 140 more rows
…
iris |> as_tibble() |> nest(data = matches("Length|Width"))

# A tibble: 3 × 2
  Species    data             
  <fct>      <list>           
1 setosa     <tibble [50 × 4]>
2 versicolor <tibble [50 × 4]>
3 virginica  <tibble [50 × 4]>

iris |> as_tibble() |> group_nest(Species) |> unnest(data)

# A tibble: 150 × 5
   Species Sepal.Length Sepal.Width Petal.Length Petal.Width
   <fct>          <dbl>       <dbl>        <dbl>       <dbl>
 1 setosa           5.1         3.5          1.4         0.2
 2 setosa           4.9         3            1.4         0.2
 3 setosa           4.7         3.2          1.3         0.2
 4 setosa           4.6         3.1          1.5         0.2
 5 setosa           5           3.6          1.4         0.2
 6 setosa           5.4         3.9          1.7         0.4
 7 setosa           4.6         3.4          1.4         0.3
 8 setosa           5           3.4          1.5         0.2
 9 setosa           4.4         2.9          1.4         0.2
10 setosa           4.9         3.1          1.5         0.1
# … with 140 more rows
…
relig_income |> as_tibble() |> 
pivot_longer(!religion, names_to = "income", values_to = "count")

# A tibble: 180 × 3
   religion income             count
   <chr>    <chr>              <dbl>
 1 Agnostic <$10k                 27
 2 Agnostic $10-20k               34
 3 Agnostic $20-30k               60
 4 Agnostic $30-40k               81
 5 Agnostic $40-50k               76
 6 Agnostic $50-75k              137
 7 Agnostic $75-100k             122
 8 Agnostic $100-150k            109
 9 Agnostic >150k                 84
10 Agnostic Don't know/refused    96
# … with 170 more rows

billboard |> as_tibble()

# A tibble: 317 × 79
   artist track date.ent…¹   wk1   wk2   wk3   wk4   wk5   wk6   wk7   wk8   wk9
   <chr>  <chr> <date>     <dbl> <dbl> <dbl> <dbl> <dbl> <dbl> <dbl> <dbl> <dbl>
 1 2 Pac  Baby… 2000-02-26    87    82    72    77    87    94    99    NA    NA
 2 2Ge+h… The … 2000-09-02    91    87    92    NA    NA    NA    NA    NA    NA
 3 3 Doo… Kryp… 2000-04-08    81    70    68    67    66    57    54    53    51
 4 3 Doo… Loser 2000-10-21    76    76    72    69    67    65    55    59    62
 5 504 B… Wobb… 2000-04-15    57    34    25    17    17    31    36    49    53
 6 98^0   Give… 2000-08-19    51    39    34    26    26    19     2     2     3
 7 A*Tee… Danc… 2000-07-08    97    97    96    95   100    NA    NA    NA    NA
 8 Aaliy… I Do… 2000-01-29    84    62    51    41    38    35    35    38    38
 9 Aaliy… Try … 2000-03-18    59    53    38    28    21    18    16    14    12
10 Adams… Open… 2000-08-26    76    76    74    69    68    67    61    58    57
# … with 307 more rows, 67 more variables: wk10 <dbl>, wk11 <dbl>, wk12 <dbl>,
#   wk13 <dbl>, wk14 <dbl>, wk15 <dbl>, wk16 <dbl>, wk17 <dbl>, wk18 <dbl>,
#   wk19 <dbl>, wk20 <dbl>, wk21 <dbl>, wk22 <dbl>, wk23 <dbl>, wk24 <dbl>,
#   wk25 <dbl>, wk26 <dbl>, wk27 <dbl>, wk28 <dbl>, wk29 <dbl>, wk30 <dbl>,
#   wk31 <dbl>, wk32 <dbl>, wk33 <dbl>, wk34 <dbl>, wk35 <dbl>, wk36 <dbl>,
#   wk37 <dbl>, wk38 <dbl>, wk39 <dbl>, wk40 <dbl>, wk41 <dbl>, wk42 <dbl>,
#   wk43 <dbl>, wk44 <dbl>, wk45 <dbl>, wk46 <dbl>, wk47 <dbl>, wk48 <dbl>, …

billboard |> as_tibble() |> 
  pivot_longer(col = starts_with("wk"),
               names_to = "week", names_prefix = "wk",
               values_to = "rank", values_drop_na = TRUE)

# A tibble: 5,307 × 5
   artist  track                   date.entered week   rank
   <chr>   <chr>                   <date>       <chr> <dbl>
 1 2 Pac   Baby Don't Cry (Keep... 2000-02-26   1        87
 2 2 Pac   Baby Don't Cry (Keep... 2000-02-26   2        82
 3 2 Pac   Baby Don't Cry (Keep... 2000-02-26   3        72
 4 2 Pac   Baby Don't Cry (Keep... 2000-02-26   4        77
 5 2 Pac   Baby Don't Cry (Keep... 2000-02-26   5        87
 6 2 Pac   Baby Don't Cry (Keep... 2000-02-26   6        94
 7 2 Pac   Baby Don't Cry (Keep... 2000-02-26   7        99
 8 2Ge+her The Hardest Part Of ... 2000-09-02   1        91
 9 2Ge+her The Hardest Part Of ... 2000-09-02   2        87
10 2Ge+her The Hardest Part Of ... 2000-09-02   3        92
# … with 5,297 more rows

who |> as_tibble()

# A tibble: 7,240 × 60
   country     iso2  iso3   year new_s…¹ new_s…² new_s…³ new_s…⁴ new_s…⁵ new_s…⁶
   <chr>       <chr> <chr> <int>   <int>   <int>   <int>   <int>   <int>   <int>
 1 Afghanistan AF    AFG    1980      NA      NA      NA      NA      NA      NA
 2 Afghanistan AF    AFG    1981      NA      NA      NA      NA      NA      NA
 3 Afghanistan AF    AFG    1982      NA      NA      NA      NA      NA      NA
 4 Afghanistan AF    AFG    1983      NA      NA      NA      NA      NA      NA
 5 Afghanistan AF    AFG    1984      NA      NA      NA      NA      NA      NA
 6 Afghanistan AF    AFG    1985      NA      NA      NA      NA      NA      NA
 7 Afghanistan AF    AFG    1986      NA      NA      NA      NA      NA      NA
 8 Afghanistan AF    AFG    1987      NA      NA      NA      NA      NA      NA
 9 Afghanistan AF    AFG    1988      NA      NA      NA      NA      NA      NA
10 Afghanistan AF    AFG    1989      NA      NA      NA      NA      NA      NA
# … with 7,230 more rows, 50 more variables: new_sp_m65 <int>,
#   new_sp_f014 <int>, new_sp_f1524 <int>, new_sp_f2534 <int>,
#   new_sp_f3544 <int>, new_sp_f4554 <int>, new_sp_f5564 <int>,
#   new_sp_f65 <int>, new_sn_m014 <int>, new_sn_m1524 <int>,
#   new_sn_m2534 <int>, new_sn_m3544 <int>, new_sn_m4554 <int>,
#   new_sn_m5564 <int>, new_sn_m65 <int>, new_sn_f014 <int>,
#   new_sn_f1524 <int>, new_sn_f2534 <int>, new_sn_f3544 <int>, …

who %>% as_tibble() |>
  pivot_longer(cols = new_sp_m014:newrel_f65,
               names_to = c("diagnosis", "gender", "age"),
               names_pattern = "new_?(.*)_(.)(.*)",
               values_to = "count", values_drop_na = TRUE)

# A tibble: 76,046 × 8
   country     iso2  iso3   year diagnosis gender age   count
   <chr>       <chr> <chr> <int> <chr>     <chr>  <chr> <int>
 1 Afghanistan AF    AFG    1997 sp        m      014       0
 2 Afghanistan AF    AFG    1997 sp        m      1524     10
 3 Afghanistan AF    AFG    1997 sp        m      2534      6
 4 Afghanistan AF    AFG    1997 sp        m      3544      3
 5 Afghanistan AF    AFG    1997 sp        m      4554      5
 6 Afghanistan AF    AFG    1997 sp        m      5564      2
 7 Afghanistan AF    AFG    1997 sp        m      65        0
 8 Afghanistan AF    AFG    1997 sp        f      014       5
 9 Afghanistan AF    AFG    1997 sp        f      1524     38
10 Afghanistan AF    AFG    1997 sp        f      2534     36
# … with 76,036 more rows
…
anscombe %>% as_tibble() |> 
 pivot_longer(everything(), names_to = c(".value", "set"), names_pattern = "(.)(.)"
 )

# A tibble: 44 × 3
   set       x     y
   <chr> <dbl> <dbl>
 1 1        10  8.04
 2 2        10  9.14
 3 3        10  7.46
 4 4         8  6.58
 5 1         8  6.95
 6 2         8  8.14
 7 3         8  6.77
 8 4         8  5.76
 9 1        13  7.58
10 2        13  8.74
# … with 34 more rows

pivot_wider() の使い方

fish_encounters

# A tibble: 114 × 3
   fish  station  seen
   <fct> <fct>   <int>
 1 4842  Release     1
 2 4842  I80_1       1
 3 4842  Lisbon      1
 4 4842  Rstr        1
 5 4842  Base_TD     1
 6 4842  BCE         1
 7 4842  BCW         1
 8 4842  BCE2        1
 9 4842  BCW2        1
10 4842  MAE         1
# … with 104 more rows
…
fish_encounters

# A tibble: 114 × 3
   fish  station  seen
   <fct> <fct>   <int>
 1 4842  Release     1
 2 4842  I80_1       1
 3 4842  Lisbon      1
 4 4842  Rstr        1
 5 4842  Base_TD     1
 6 4842  BCE         1
 7 4842  BCW         1
 8 4842  BCE2        1
 9 4842  BCW2        1
10 4842  MAE         1
# … with 104 more rows
…
us_rent_income |> as_tibble()

# A tibble: 104 × 5
   GEOID NAME       variable estimate   moe
   <chr> <chr>      <chr>       <dbl> <dbl>
 1 01    Alabama    income      24476   136
 2 01    Alabama    rent          747     3
 3 02    Alaska     income      32940   508
 4 02    Alaska     rent         1200    13
 5 04    Arizona    income      27517   148
 6 04    Arizona    rent          972     4
 7 05    Arkansas   income      23789   165
 8 05    Arkansas   rent          709     5
 9 06    California income      29454   109
10 06    California rent         1358     3
# … with 94 more rows

us_rent_income |> as_tibble() |> 
  pivot_wider(names_from = variable, values_from = c(estimate, moe))

# A tibble: 52 × 6
   GEOID NAME                 estimate_income estimate_rent moe_income moe_rent
   <chr> <chr>                          <dbl>         <dbl>      <dbl>    <dbl>
 1 01    Alabama                        24476           747        136        3
 2 02    Alaska                         32940          1200        508       13
 3 04    Arizona                        27517           972        148        4
 4 05    Arkansas                       23789           709        165        5
 5 06    California                     29454          1358        109        3
 6 08    Colorado                       32401          1125        109        5
 7 09    Connecticut                    35326          1123        195        5
 8 10    Delaware                       31560          1076        247       10
 9 11    District of Columbia           43198          1424        681       17
10 12    Florida                        25952          1077         70        3
# … with 42 more rows
…
