研究室と講義の R コード - ggplot の図
…
Loading required package: sysfonts
Loading required package: showtextdb

library(patchwork)

図の詳細設定

showtext パッケージを使って、システムフォントを使えるようにします。 使用可能なフォントは次のように調べます。

#! eval: false
font_files() |> as_tibble()

# A tibble: 2,823 × 6
   path                                 file        family face  version ps_name
   <chr>                                <chr>       <chr>  <chr> <chr>   <chr>  
 1 /usr/share/fonts/Fira_Code           FiraCode-V… Fira … Regu… Versio… FiraCo…
 2 /usr/share/fonts/Fira_Code/static    FiraCode-B… Fira … Bold  Versio… FiraCo…
 3 /usr/share/fonts/Fira_Code/static    FiraCode-L… Fira … Regu… Versio… FiraCo…
 4 /usr/share/fonts/Fira_Code/static    FiraCode-M… Fira … Regu… Versio… FiraCo…
 5 /usr/share/fonts/Fira_Code/static    FiraCode-R… Fira … Regu… Versio… FiraCo…
 6 /usr/share/fonts/Fira_Code/static    FiraCode-S… Fira … Regu… Versio… FiraCo…
 7 /usr/share/fonts/Fira_Mono           FiraMono-B… Fira … Bold  Versio… FiraMo…
 8 /usr/share/fonts/Fira_Mono           FiraMono-M… Fira … Regu… Versio… FiraMo…
 9 /usr/share/fonts/Fira_Mono           FiraMono-R… Fira … Regu… Versio… FiraMo…
10 /usr/share/fonts/Fira_Sans_Condensed FiraSansCo… Fira … Regu… Versio… FiraSa…
# … with 2,813 more rows

Google の Noto シリーズのフォントを使いたいので、filter() にかけます。

font_files() |> as_tibble() |> 
  filter(str_detect(ps_name, "NotoSansCJK|NotoSansSymbol")) |> 
  select(file, face, ps_name) 

# A tibble: 27 × 3
   file                          face    ps_name                  
   <chr>                         <chr>   <chr>                    
 1 NotoSansCJKjp-Black.otf       Regular NotoSansCJKjp-Black      
 2 NotoSansCJKjp-Bold.otf        Regular NotoSansCJKjp-Bold       
 3 NotoSansCJKjp-DemiLight.otf   Regular NotoSansCJKjp-DemiLight  
 4 NotoSansCJKjp-Light.otf       Regular NotoSansCJKjp-Light      
 5 NotoSansCJKjp-Medium.otf      Regular NotoSansCJKjp-Medium     
 6 NotoSansCJKjp-Regular.otf     Regular NotoSansCJKjp-Regular    
 7 NotoSansCJKjp-Thin.otf        Regular NotoSansCJKjp-Thin       
 8 NotoSansSymbols-Black.ttf     Regular NotoSansSymbols-Black    
 9 NotoSansSymbols-Bold.ttf      Bold    NotoSansSymbols-Bold     
10 NotoSansSymbols-ExtraBold.ttf Regular NotoSansSymbols-ExtraBold
# … with 17 more rows
…
