研究室と講義の R コード - Tidyverse
…
read_csv()

rabbits = read_csv("Assignment_06_Dataset01.csv")
rabbits

Rows: 37 Columns: 2
── Column specification ────────────────────────────────────────────────────────
Delimiter: ","
chr (1): host
dbl (1): scutum.width

ℹ Use `spec()` to retrieve the full column specification for this data.
ℹ Specify the column types or set `show_col_types = FALSE` to quiet this message.

# A tibble: 37 × 2
   host    scutum.width
   <chr>          <dbl>
 1 Rabbit1          380
 2 Rabbit1          376
 3 Rabbit1          360
 4 Rabbit1          368
 5 Rabbit1          372
 6 Rabbit1          366
 7 Rabbit1          374
 8 Rabbit1          382
 9 Rabbit2          350
10 Rabbit2          356
# … with 27 more rows
…
read_excel() の使用例（２）

先程のように読み込むと、不都合な変数名に変換されました。次は、変数名も指定して読み込みます。

filename = "Table 2.xlsx"
col_names = c("month", "temperature1", "sd1", "empty","temperature2", "sd2")
exceldata = read_excel(filename, sheet = 1, skip = 2, col_name = col_names)
exceldata |> print(n = 4)

# A tibble: 12 × 6
  month temperature1   sd1 empty temperature2   sd2
  <chr>        <dbl> <dbl> <lgl>        <dbl> <dbl>
1 Jan.          21.1 0.446 NA            16.5 0.428
2 Feb.          21.3 0.441 NA            16.3 0.483
3 Mar.          21.5 0.470 NA            16.5 0.579
4 Apr.          21.8 0.554 NA            18.3 1.27 
# … with 8 more rows
…
